<?xml version="1.0" encoding="utf-8"?>
<!-- Generator: Adobe Illustrator 16.0.0, SVG Export Plug-In . SVG Version: 6.00 Build 0)  -->
<!DOCTYPE svg PUBLIC "-//W3C//DTD SVG 1.1//EN" "http://www.w3.org/Graphics/SVG/1.1/DTD/svg11.dtd">
<svg version="1.1" id="Layer_1" xmlns="http://www.w3.org/2000/svg" xmlns:xlink="http://www.w3.org/1999/xlink" x="0px" y="0px"
	 width="28px" height="28px" viewBox="0 0 28 28" enable-background="new 0 0 28 28" xml:space="preserve">
<g>
	<path fill="#939598" d="M2.8,8.5C3.389,8.401,4.159,8.317,5.14,8.317c1.205,0,2.087,0.28,2.647,0.785
		c0.518,0.448,0.827,1.134,0.827,1.975c0,0.854-0.252,1.527-0.729,2.017C7.241,13.78,6.19,14.13,5,14.13
		c-0.364,0-0.7-0.014-0.98-0.084v3.782H2.8V8.5z M4.019,13.052c0.266,0.07,0.603,0.098,1.009,0.098c1.471,0,2.367-0.714,2.367-2.017
		c0-1.247-0.883-1.849-2.228-1.849c-0.532,0-0.938,0.042-1.148,0.098V13.052z"/>
	<path fill="#939598" d="M11.467,8.388v3.95h4.566v-3.95h1.232v9.44h-1.232v-4.426h-4.566v4.426h-1.219v-9.44H11.467z"/>
	<path fill="#939598" d="M19.377,8.5c0.588-0.098,1.357-0.182,2.34-0.182c1.203,0,2.086,0.28,2.646,0.785
		c0.518,0.448,0.826,1.134,0.826,1.975c0,0.854-0.252,1.527-0.729,2.017c-0.645,0.686-1.695,1.036-2.885,1.036
		c-0.365,0-0.701-0.014-0.98-0.084v3.782h-1.219V8.5z M20.596,13.052c0.266,0.07,0.602,0.098,1.008,0.098
		c1.471,0,2.367-0.714,2.367-2.017c0-1.247-0.883-1.849-2.227-1.849c-0.533,0-0.939,0.042-1.148,0.098V13.052z"/>
</g>
<g>
</g>
<g>
</g>
<g>
</g>
<g>
</g>
<g>
</g>
<g>
</g>
</svg>
