<?xml version="1.0" encoding="UTF-8" standalone="no"?>
<svg width="322px" height="276px" viewBox="0 0 322 276" version="1.1" xmlns="http://www.w3.org/2000/svg" xmlns:xlink="http://www.w3.org/1999/xlink" xmlns:sketch="http://www.bohemiancoding.com/sketch/ns">
    <!-- Generator: Sketch 3.3.2 (12043) - http://www.bohemiancoding.com/sketch -->
    <title>Triangle 29 Copy</title>
    <desc>Created with Sketch.</desc>
    <defs></defs>
    <g id="Deliver-to-Different-Address" stroke="none" stroke-width="1" fill="none" fill-rule="evenodd" sketch:type="MSPage">
        <path d="M141.322065,13.2674977 C152.195936,-4.44359697 169.851879,-4.40138893 180.699836,13.2674977 L315.489231,232.809155 C330.005734,256.453278 319.431476,275.620627 291.884684,275.620627 L30.1372173,275.620627 C2.58428339,275.620627 -8.03071402,256.529639 6.53267058,232.809155 L141.322065,13.2674977 Z M161.015617,187.547229 C167.917936,187.547229 173.513371,181.847165 173.513371,175.002682 L173.513371,99.436464 C173.513371,92.5083022 167.966058,86.891917 161.015617,86.891917 C154.113299,86.891917 148.517863,92.5919808 148.517863,99.436464 L148.517863,175.002682 C148.517863,181.930844 154.065176,187.547229 161.015617,187.547229 L161.015617,187.547229 Z M161.015617,237.874885 C167.917937,237.874885 173.513371,232.241771 173.513371,225.292971 C173.513371,218.344171 167.917937,212.711057 161.015617,212.711057 C154.113298,212.711057 148.517863,218.344171 148.517863,225.292971 C148.517863,232.241771 154.113298,237.874885 161.015617,237.874885 L161.015617,237.874885 Z" id="Triangle-29-Copy" fill="#F1C40F" sketch:type="MSShapeGroup"></path>
    </g>
</svg>